{
	"info": {
		"_postman_id": "0783611f-bebc-40a5-ab9e-f2e6ec4b9766",
		"name": "Octoprint",
		"schema": "https://schema.getpostman.com/json/collection/v2.1.0/collection.json",
		"_exporter_id": "15532215"
	},
	"item": [
		{
			"name": "Jobs",
			"item": [
				{
					"name": "Status",
					"request": {
						"method": "GET",
						"header": [],
						"url": {
							"raw": "{{api_uri}}/job",
							"host": [
								"{{api_uri}}"
							],
							"path": [
								"job"
							]
						}
					},
					"response": []
				},
				{
					"name": "Start",
					"request": {
						"method": "POST",
						"header": [],
						"body": {
							"mode": "raw",
							"raw": "{\r\n  \"command\": \"start\"\r\n}",
							"options": {
								"raw": {
									"language": "json"
								}
							}
						},
						"url": {
							"raw": "{{api_uri}}/job",
							"host": [
								"{{api_uri}}"
							],
							"path": [
								"job"
							]
						}
					},
					"response": []
				},
				{
					"name": "Cancel",
					"request": {
						"method": "POST",
						"header": [],
						"body": {
							"mode": "raw",
							"raw": "{\r\n  \"command\": \"cancel\"\r\n}",
							"options": {
								"raw": {
									"language": "json"
								}
							}
						},
						"url": {
							"raw": "{{api_uri}}/job",
							"host": [
								"{{api_uri}}"
							],
							"path": [
								"job"
							]
						}
					},
					"response": []
				}
			]
		},
		{
			"name": "Commands",
			"item": [
				{
					"name": "Server",
					"item": [
						{
							"name": "Restart",
							"request": {
								"method": "POST",
								"header": [],
								"url": {
									"raw": "{{api_uri}}/system/commands/core/restart",
									"host": [
										"{{api_uri}}"
									],
									"path": [
										"system",
										"commands",
										"core",
										"restart"
									]
								}
							},
							"response": []
						},
						{
							"name": "Restart Safe",
							"request": {
								"method": "POST",
								"header": [],
								"url": {
									"raw": "{{api_uri}}/system/commands/core/restart_safe",
									"host": [
										"{{api_uri}}"
									],
									"path": [
										"system",
										"commands",
										"core",
										"restart_safe"
									]
								}
							},
							"response": []
						}
					]
				},
				{
					"name": "System",
					"item": [
						{
							"name": "Reboot",
							"request": {
								"method": "POST",
								"header": [],
								"url": {
									"raw": "{{api_uri}}/system/commands/core/reboot",
									"host": [
										"{{api_uri}}"
									],
									"path": [
										"system",
										"commands",
										"core",
										"reboot"
									]
								}
							},
							"response": []
						},
						{
							"name": "Shutdown",
							"request": {
								"method": "POST",
								"header": [],
								"url": {
									"raw": "{{api_uri}}/system/commands/core/shutdown",
									"host": [
										"{{api_uri}}"
									],
									"path": [
										"system",
										"commands",
										"core",
										"shutdown"
									]
								}
							},
							"response": []
						}
					]
				},
				{
					"name": "List core command",
					"request": {
						"method": "GET",
						"header": [],
						"url": {
							"raw": "{{api_uri}}/system/commands",
							"host": [
								"{{api_uri}}"
							],
							"path": [
								"system",
								"commands"
							]
						}
					},
					"response": []
				}
			]
		},
		{
			"name": "Printer",
			"item": [
				{
					"name": "Tool",
					"item": [
						{
							"name": "Status",
							"request": {
								"method": "GET",
								"header": [],
								"url": {
									"raw": "{{api_uri}}/printer/tool",
									"host": [
										"{{api_uri}}"
									],
									"path": [
										"printer",
										"tool"
									]
								}
							},
							"response": []
						}
					]
				},
				{
					"name": "Status",
					"request": {
						"method": "GET",
						"header": [],
						"url": {
							"raw": "{{api_uri}}/printer",
							"host": [
								"{{api_uri}}"
							],
							"path": [
								"printer"
							]
						}
					},
					"response": []
				},
				{
					"name": "Home",
					"request": {
						"method": "POST",
						"header": [],
						"body": {
							"mode": "raw",
							"raw": "{\r\n  \"command\": \"home\",\r\n  \"axes\": [\"x\", \"y\", \"z\"] // All axes\r\n}",
							"options": {
								"raw": {
									"language": "json"
								}
							}
						},
						"url": {
							"raw": "{{api_uri}}/printer/printhead",
							"host": [
								"{{api_uri}}"
							],
							"path": [
								"printer",
								"printhead"
							]
						}
					},
					"response": []
				},
				{
					"name": "Extrude/Retract",
					"protocolProfileBehavior": {
						"disableBodyPruning": true
					},
					"request": {
						"method": "GET",
						"header": [],
						"body": {
							"mode": "raw",
							"raw": "{\r\n  \"command\": \"extrude\",\r\n  \"amount\": 5 // Negative for retract\r\n}",
							"options": {
								"raw": {
									"language": "json"
								}
							}
						},
						"url": {
							"raw": "{{api_uri}}/printer/tool",
							"host": [
								"{{api_uri}}"
							],
							"path": [
								"printer",
								"tool"
							]
						}
					},
					"response": []
				}
			]
		},
		{
			"name": "Current User",
			"request": {
				"method": "GET",
				"header": [],
				"url": {
					"raw": "{{api_uri}}/currentuser",
					"host": [
						"{{api_uri}}"
					],
					"path": [
						"currentuser"
					]
				}
			},
			"response": []
		},
		{
			"name": "Version",
			"request": {
				"method": "GET",
				"header": [],
				"url": {
					"raw": "{{api_uri}}/version",
					"host": [
						"{{api_uri}}"
					],
					"path": [
						"version"
					]
				}
			},
			"response": []
		},
		{
			"name": "Server info",
			"request": {
				"method": "GET",
				"header": [],
				"url": {
					"raw": "{{api_uri}}/server",
					"host": [
						"{{api_uri}}"
					],
					"path": [
						"server"
					]
				}
			},
			"response": []
		},
		{
			"name": "List all files",
			"request": {
				"method": "GET",
				"header": [],
				"url": {
					"raw": "{{api_uri}}/files",
					"host": [
						"{{api_uri}}"
					],
					"path": [
						"files"
					]
				}
			},
			"response": []
		},
		{
			"name": "Login",
			"protocolProfileBehavior": {
				"disabledSystemHeaders": {}
			},
			"request": {
				"method": "POST",
				"header": [],
				"body": {
					"mode": "raw",
					"raw": "{\r\n    \"passive\": true\r\n}",
					"options": {
						"raw": {
							"language": "json"
						}
					}
				},
				"url": {
					"raw": "{{api_uri}}/login",
					"host": [
						"{{api_uri}}"
					],
					"path": [
						"login"
					]
				}
			},
			"response": []
		},
		{
			"name": "Settings",
			"request": {
				"method": "GET",
				"header": [],
				"url": {
					"raw": "{{api_uri}}/settings",
					"host": [
						"{{api_uri}}"
					],
					"path": [
						"settings"
					]
				}
			},
			"response": []
		},
		{
			"name": "Camera snapshot",
			"request": {
				"method": "GET",
				"header": [],
				"url": {
					"raw": "{{api_uri}}/webcam/?action=snapshot",
					"host": [
						"{{api_uri}}"
					],
					"path": [
						"webcam",
						""
					],
					"query": [
						{
							"key": "action",
							"value": "snapshot"
						}
					]
				}
			},
			"response": []
		}
	],
	"auth": {
		"type": "bearer",
		"bearer": [
			{
				"key": "token",
				"value": "{{auth_token}}",
				"type": "string"
			}
		]
	},
	"event": [
		{
			"listen": "prerequest",
			"script": {
				"type": "text/javascript",
				"exec": [
					""
				]
			}
		},
		{
			"listen": "test",
			"script": {
				"type": "text/javascript",
				"exec": [
					""
				]
			}
		}
	]
}